{
    "requestContext": {
        "http": {
            "method": "GET",
            "path": "/example"
        }
    },
    "queryStringParameters": {
        "query": "My name is Hathaway"
    },
    "headers": {},
    "body": "",
    "isBase64Encoded": false
}